%YAML 1.1
%TAG !u! tag:unity3d.com,2011:
--- !u!114 &11400000
MonoBehaviour:
  m_ObjectHideFlags: 0
  m_CorrespondingSourceObject: {fileID: 0}
  m_PrefabInstance: {fileID: 0}
  m_PrefabAsset: {fileID: 0}
  m_GameObject: {fileID: 0}
  m_Enabled: 1
  m_EditorHideFlags: 0
  m_Script: {fileID: 11500000, guid: 2e150b53b7eeccd4c8f6ca9c92159437, type: 3}
  m_Name: Death Strings
  m_EditorClassIdentifier: 
  Strings:
  - You died.
  - That was a tragedy.
  - Haha noob.
  - Oops.
  - Oh nooooooooo...
  - What happened there?
  - Oof owie ouch oof ow.
  - Death! My one weakness!
  - That looks like it hurt.
  - Who writes these messages?
  - Help! I'm trapped in a death message writing factory!
