%YAML 1.1
%TAG !u! tag:unity3d.com,2011:
--- !u!1 &6525372379313837647
GameObject:
  m_ObjectHideFlags: 0
  m_CorrespondingSourceObject: {fileID: 8314907294208191356, guid: d478ad4096321714086df2377cc538af,
    type: 3}
  m_PrefabInstance: {fileID: 3020432907974016307}
  m_PrefabAsset: {fileID: 0}
  serializedVersion: 6
  m_Component:
  - component: {fileID: 6525372379313837636}
  - component: {fileID: 6525372379313837635}
  - component: {fileID: 6525372379313837634}
  - component: {fileID: 6525372379313837633}
  - component: {fileID: 6525372379313837632}
  m_Layer: 0
  m_Name: trustmeimacube
  m_TagString: Untagged
  m_Icon: {fileID: 0}
  m_NavMeshLayer: 0
  m_StaticEditorFlags: 1
  m_IsActive: 1
--- !u!4 &6525372379313837636
Transform:
  m_ObjectHideFlags: 0
  m_CorrespondingSourceObject: {fileID: 8314907294208191351, guid: d478ad4096321714086df2377cc538af,
    type: 3}
  m_PrefabInstance: {fileID: 3020432907974016307}
  m_PrefabAsset: {fileID: 0}
  m_GameObject: {fileID: 6525372379313837647}
  m_LocalRotation: {x: 0, y: 0, z: 0, w: 1}
  m_LocalPosition: {x: 0, y: 0, z: 0}
  m_LocalScale: {x: 1, y: 1, z: 1}
  m_Children: []
  m_Father: {fileID: 0}
  m_RootOrder: 0
  m_LocalEulerAnglesHint: {x: 0, y: 0, z: 0}
--- !u!33 &6525372379313837635
MeshFilter:
  m_ObjectHideFlags: 0
  m_CorrespondingSourceObject: {fileID: 8314907294208191344, guid: d478ad4096321714086df2377cc538af,
    type: 3}
  m_PrefabInstance: {fileID: 3020432907974016307}
  m_PrefabAsset: {fileID: 0}
  m_GameObject: {fileID: 6525372379313837647}
  m_Mesh: {fileID: 0}
--- !u!23 &6525372379313837634
MeshRenderer:
  m_ObjectHideFlags: 0
  m_CorrespondingSourceObject: {fileID: 8314907294208191345, guid: d478ad4096321714086df2377cc538af,
    type: 3}
  m_PrefabInstance: {fileID: 3020432907974016307}
  m_PrefabAsset: {fileID: 0}
  m_GameObject: {fileID: 6525372379313837647}
  m_Enabled: 1
  m_CastShadows: 1
  m_ReceiveShadows: 1
  m_DynamicOccludee: 1
  m_MotionVectors: 1
  m_LightProbeUsage: 1
  m_ReflectionProbeUsage: 1
  m_RenderingLayerMask: 1
  m_RendererPriority: 0
  m_Materials:
  - {fileID: 2100000, guid: 55296d1b6ee54e14e8eb4648d4b448ee, type: 2}
  m_StaticBatchInfo:
    firstSubMesh: 0
    subMeshCount: 0
  m_StaticBatchRoot: {fileID: 0}
  m_ProbeAnchor: {fileID: 0}
  m_LightProbeVolumeOverride: {fileID: 0}
  m_ScaleInLightmap: 1
  m_PreserveUVs: 0
  m_IgnoreNormalsForChartDetection: 0
  m_ImportantGI: 0
  m_StitchLightmapSeams: 0
  m_SelectedEditorRenderState: 2
  m_MinimumChartSize: 4
  m_AutoUVMaxDistance: 0.5
  m_AutoUVMaxAngle: 89
  m_LightmapParameters: {fileID: 0}
  m_SortingLayerID: 0
  m_SortingLayer: 0
  m_SortingOrder: 0
--- !u!114 &6525372379313837633
MonoBehaviour:
  m_ObjectHideFlags: 0
  m_CorrespondingSourceObject: {fileID: 8314907294208191346, guid: d478ad4096321714086df2377cc538af,
    type: 3}
  m_PrefabInstance: {fileID: 3020432907974016307}
  m_PrefabAsset: {fileID: 0}
  m_GameObject: {fileID: 6525372379313837647}
  m_Enabled: 1
  m_EditorHideFlags: 0
  m_Script: {fileID: 16342205, guid: 0472bdc8d6d15384d98f22ee34302f9c, type: 3}
  m_Name: 
  m_EditorClassIdentifier: 
  _entityType: 0
--- !u!114 &6525372379313837632
MonoBehaviour:
  m_ObjectHideFlags: 0
  m_CorrespondingSourceObject: {fileID: 8314907294208191347, guid: d478ad4096321714086df2377cc538af,
    type: 3}
  m_PrefabInstance: {fileID: 3020432907974016307}
  m_PrefabAsset: {fileID: 0}
  m_GameObject: {fileID: 6525372379313837647}
  m_Enabled: 1
  m_EditorHideFlags: 0
  m_Script: {fileID: 185759285, guid: 0472bdc8d6d15384d98f22ee34302f9c, type: 3}
  m_Name: 
  m_EditorClassIdentifier: 
  _quads:
  - _indices: 000000000100000002000000010000000300000002000000
    _distinctIndices: 00000000010000000200000003000000
    _edges:
    - x: 0
      y: 1
    - x: 2
      y: 0
    - x: 1
      y: 3
    - x: 3
      y: 2
    _smoothingGroup: 0
    _uv:
      useWorldSpace: 0
      flipU: 0
      flipV: 0
      swapUV: 0
      fill: 1
      scale: {x: 1, y: 1}
      offset: {x: 0, y: 0}
      rotation: 0
      justify: 0
      localPivot: {x: 0, y: 0}
      localSize: {x: 0, y: 0}
      anchor: 9
    _mat: {fileID: 2100000, guid: 55296d1b6ee54e14e8eb4648d4b448ee, type: 2}
    manualUV: 0
    elementGroup: -1
    textureGroup: -1
  - _indices: 040000000500000006000000050000000700000006000000
    _distinctIndices: 04000000050000000600000007000000
    _edges:
    - x: 4
      y: 5
    - x: 6
      y: 4
    - x: 5
      y: 7
    - x: 7
      y: 6
    _smoothingGroup: 0
    _uv:
      useWorldSpace: 0
      flipU: 0
      flipV: 0
      swapUV: 0
      fill: 1
      scale: {x: 1, y: 1}
      offset: {x: 0, y: 0}
      rotation: 0
      justify: 0
      localPivot: {x: 0, y: 0}
      localSize: {x: 0, y: 0}
      anchor: 9
    _mat: {fileID: 2100000, guid: 55296d1b6ee54e14e8eb4648d4b448ee, type: 2}
    manualUV: 0
    elementGroup: -1
    textureGroup: -1
  - _indices: 08000000090000000a000000090000000b0000000a000000
    _distinctIndices: 08000000090000000a0000000b000000
    _edges:
    - x: 8
      y: 9
    - x: 10
      y: 8
    - x: 9
      y: 11
    - x: 11
      y: 10
    _smoothingGroup: 0
    _uv:
      useWorldSpace: 0
      flipU: 0
      flipV: 0
      swapUV: 0
      fill: 1
      scale: {x: 1, y: 1}
      offset: {x: 0, y: 0}
      rotation: 0
      justify: 0
      localPivot: {x: 0, y: 0}
      localSize: {x: 0, y: 0}
      anchor: 9
    _mat: {fileID: 2100000, guid: 55296d1b6ee54e14e8eb4648d4b448ee, type: 2}
    manualUV: 0
    elementGroup: -1
    textureGroup: -1
  - _indices: 0c0000000d0000000e0000000d0000000f0000000e000000
    _distinctIndices: 0c0000000d0000000e0000000f000000
    _edges:
    - x: 12
      y: 13
    - x: 14
      y: 12
    - x: 13
      y: 15
    - x: 15
      y: 14
    _smoothingGroup: 0
    _uv:
      useWorldSpace: 0
      flipU: 0
      flipV: 0
      swapUV: 0
      fill: 1
      scale: {x: 1, y: 1}
      offset: {x: 0, y: 0}
      rotation: 0
      justify: 0
      localPivot: {x: 0, y: 0}
      localSize: {x: 0, y: 0}
      anchor: 9
    _mat: {fileID: 2100000, guid: 55296d1b6ee54e14e8eb4648d4b448ee, type: 2}
    manualUV: 0
    elementGroup: -1
    textureGroup: -1
  - _indices: 100000001100000012000000110000001300000012000000
    _distinctIndices: 10000000110000001200000013000000
    _edges:
    - x: 16
      y: 17
    - x: 18
      y: 16
    - x: 17
      y: 19
    - x: 19
      y: 18
    _smoothingGroup: 0
    _uv:
      useWorldSpace: 0
      flipU: 0
      flipV: 0
      swapUV: 0
      fill: 1
      scale: {x: 1, y: 1}
      offset: {x: 0, y: 0}
      rotation: 0
      justify: 0
      localPivot: {x: 0, y: 0}
      localSize: {x: 0, y: 0}
      anchor: 9
    _mat: {fileID: 2100000, guid: 55296d1b6ee54e14e8eb4648d4b448ee, type: 2}
    manualUV: 0
    elementGroup: -1
    textureGroup: -1
  - _indices: 140000001500000016000000150000001700000016000000
    _distinctIndices: 14000000150000001600000017000000
    _edges:
    - x: 20
      y: 21
    - x: 22
      y: 20
    - x: 21
      y: 23
    - x: 23
      y: 22
    _smoothingGroup: 0
    _uv:
      useWorldSpace: 0
      flipU: 0
      flipV: 0
      swapUV: 0
      fill: 1
      scale: {x: 1, y: 1}
      offset: {x: 0, y: 0}
      rotation: 0
      justify: 0
      localPivot: {x: 0, y: 0}
      localSize: {x: 0, y: 0}
      anchor: 9
    _mat: {fileID: 2100000, guid: 55296d1b6ee54e14e8eb4648d4b448ee, type: 2}
    manualUV: 0
    elementGroup: -1
    textureGroup: -1
  _sharedIndices: []
  _vertices:
  - {x: -5000000, y: -0.5, z: 0.5}
  - {x: 5000000, y: -0.5, z: 0.5}
  - {x: -5000000, y: 0.5, z: 0.5}
  - {x: 5000000, y: 0.5, z: 0.5}
  - {x: 5000000, y: -0.5, z: 0.5}
  - {x: 5000000, y: -0.5, z: -0.5}
  - {x: 5000000, y: 0.5, z: 0.5}
  - {x: 5000000, y: 0.5, z: -0.5}
  - {x: 5000000, y: -0.5, z: -0.5}
  - {x: -5000000, y: -0.5, z: -0.5}
  - {x: 5000000, y: 0.5, z: -0.5}
  - {x: -5000000, y: 0.5, z: -0.5}
  - {x: -5000000, y: -0.5, z: -0.5}
  - {x: -5000000, y: -0.5, z: 0.5}
  - {x: -5000000, y: 0.5, z: -0.5}
  - {x: -5000000, y: 0.5, z: 0.5}
  - {x: -5000000, y: 0.5, z: 0.5}
  - {x: 5000000, y: 0.5, z: 0.5}
  - {x: -5000000, y: 0.5, z: -0.5}
  - {x: 5000000, y: 0.5, z: -0.5}
  - {x: -5000000, y: -0.5, z: -0.5}
  - {x: 5000000, y: -0.5, z: -0.5}
  - {x: -5000000, y: -0.5, z: 0.5}
  - {x: 5000000, y: -0.5, z: 0.5}
  _uv:
  - {x: 5000000, y: -0.5}
  - {x: -5000000, y: -0.5}
  - {x: 5000000, y: 0.5}
  - {x: -5000000, y: 0.5}
  - {x: 0.5, y: -0.5}
  - {x: -0.5, y: -0.5}
  - {x: 0.5, y: 0.5}
  - {x: -0.5, y: 0.5}
  - {x: 5000000, y: -0.5}
  - {x: -5000000, y: -0.5}
  - {x: 5000000, y: 0.5}
  - {x: -5000000, y: 0.5}
  - {x: 0.5, y: -0.5}
  - {x: -0.5, y: -0.5}
  - {x: 0.5, y: 0.5}
  - {x: -0.5, y: 0.5}
  - {x: -5000000, y: 0.5}
  - {x: 5000000, y: 0.5}
  - {x: -5000000, y: -0.5}
  - {x: 5000000, y: -0.5}
  - {x: 5000000, y: -0.5}
  - {x: -5000000, y: -0.5}
  - {x: 5000000, y: 0.5}
  - {x: -5000000, y: 0.5}
  _uv3: []
  _uv4: []
  _tangents: []
  _sharedIndicesUV: []
  _colors:
  - {r: 1, g: 1, b: 1, a: 1}
  - {r: 1, g: 1, b: 1, a: 1}
  - {r: 1, g: 1, b: 1, a: 1}
  - {r: 1, g: 1, b: 1, a: 1}
  - {r: 1, g: 1, b: 1, a: 1}
  - {r: 1, g: 1, b: 1, a: 1}
  - {r: 1, g: 1, b: 1, a: 1}
  - {r: 1, g: 1, b: 1, a: 1}
  - {r: 1, g: 1, b: 1, a: 1}
  - {r: 1, g: 1, b: 1, a: 1}
  - {r: 1, g: 1, b: 1, a: 1}
  - {r: 1, g: 1, b: 1, a: 1}
  - {r: 1, g: 1, b: 1, a: 1}
  - {r: 1, g: 1, b: 1, a: 1}
  - {r: 1, g: 1, b: 1, a: 1}
  - {r: 1, g: 1, b: 1, a: 1}
  - {r: 1, g: 1, b: 1, a: 1}
  - {r: 1, g: 1, b: 1, a: 1}
  - {r: 1, g: 1, b: 1, a: 1}
  - {r: 1, g: 1, b: 1, a: 1}
  - {r: 1, g: 1, b: 1, a: 1}
  - {r: 1, g: 1, b: 1, a: 1}
  - {r: 1, g: 1, b: 1, a: 1}
  - {r: 1, g: 1, b: 1, a: 1}
  userCollisions: 0
  isSelectable: 1
  unwrapParameters:
    hardAngle: 88
    packMargin: 4
    angleError: 8
    areaError: 15
  asset_guid: 
  dontDestroyMeshOnDelete: 0
  m_selectedFaces: 
  m_SelectedEdges: []
  m_selectedTriangles: 
--- !u!1001 &3020432907974016307
PrefabInstance:
  m_ObjectHideFlags: 0
  serializedVersion: 2
  m_Modification:
    m_TransformParent: {fileID: 0}
    m_Modifications:
    - target: {fileID: 8314907294208191356, guid: d478ad4096321714086df2377cc538af,
        type: 3}
      propertyPath: m_Name
      value: trustmeimacube
      objectReference: {fileID: 0}
    - target: {fileID: 8314907294208191351, guid: d478ad4096321714086df2377cc538af,
        type: 3}
      propertyPath: m_LocalPosition.x
      value: 0
      objectReference: {fileID: 0}
    - target: {fileID: 8314907294208191351, guid: d478ad4096321714086df2377cc538af,
        type: 3}
      propertyPath: m_LocalPosition.y
      value: 0
      objectReference: {fileID: 0}
    - target: {fileID: 8314907294208191351, guid: d478ad4096321714086df2377cc538af,
        type: 3}
      propertyPath: m_LocalPosition.z
      value: 0
      objectReference: {fileID: 0}
    - target: {fileID: 8314907294208191351, guid: d478ad4096321714086df2377cc538af,
        type: 3}
      propertyPath: m_LocalRotation.x
      value: 0
      objectReference: {fileID: 0}
    - target: {fileID: 8314907294208191351, guid: d478ad4096321714086df2377cc538af,
        type: 3}
      propertyPath: m_LocalRotation.y
      value: 0
      objectReference: {fileID: 0}
    - target: {fileID: 8314907294208191351, guid: d478ad4096321714086df2377cc538af,
        type: 3}
      propertyPath: m_LocalRotation.z
      value: 0
      objectReference: {fileID: 0}
    - target: {fileID: 8314907294208191351, guid: d478ad4096321714086df2377cc538af,
        type: 3}
      propertyPath: m_LocalRotation.w
      value: 1
      objectReference: {fileID: 0}
    - target: {fileID: 8314907294208191351, guid: d478ad4096321714086df2377cc538af,
        type: 3}
      propertyPath: m_RootOrder
      value: 2
      objectReference: {fileID: 0}
    - target: {fileID: 8314907294208191351, guid: d478ad4096321714086df2377cc538af,
        type: 3}
      propertyPath: m_LocalEulerAnglesHint.x
      value: 0
      objectReference: {fileID: 0}
    - target: {fileID: 8314907294208191351, guid: d478ad4096321714086df2377cc538af,
        type: 3}
      propertyPath: m_LocalEulerAnglesHint.y
      value: 0
      objectReference: {fileID: 0}
    - target: {fileID: 8314907294208191351, guid: d478ad4096321714086df2377cc538af,
        type: 3}
      propertyPath: m_LocalEulerAnglesHint.z
      value: 0
      objectReference: {fileID: 0}
    - target: {fileID: 8314907294208191344, guid: d478ad4096321714086df2377cc538af,
        type: 3}
      propertyPath: m_Mesh
      value: 
      objectReference: {fileID: 0}
    m_RemovedComponents: []
  m_SourcePrefab: {fileID: 100100000, guid: d478ad4096321714086df2377cc538af, type: 3}
